Your Document Title
…
## [1] 2.665212

sim1_dist <- function(a1, a2) {
  measure_distance(c(a1, a2), sim1)
}

models <- models %>% 
  mutate(dist = purrr::map2_dbl(a1, a2, sim1_dist))
models

## # A tibble: 250 x 3
##         a1     a2  dist
##      <dbl>  <dbl> <dbl>
##  1   4.27  -4.11  38.3 
##  2  19.9    2.91  20.7 
##  3 -18.9    4.04  13.7 
##  4   9.51   1.88   4.85
##  5   0.563 -1.50  25.4 
##  6  14.7    2.48  13.1 
##  7  11.7    1.94   7.23
##  8 -17.6    4.23  11.8 
##  9 -18.9   -1.36  43.1 
## 10  39.7    0.285 26.4 
## # ... with 240 more rows
…
